[
    {
        "id": 1,
        "name": "kusal",
        "email": "Ahmad.abdulaziz37@gmail.com",
        "aboutme":"sgdsgsdgsdgsdgsdgsdgsdgsdgsdgdfshfdhsdfhs", 
        "urlbox":"https://via.placeholder.com/600/24f355"    
    },
    {
        "id": 2,
        "name": "sanka",
        "email": "Ahmadhabibhussein@mail.com",
        "aboutme":"sgdsgsdgsdgsdgsdgsdgsdgsdgsdgdfshfdhsdfhs",
        "urlbox":"https://via.placeholder.com/600/24f355"          
    },
    {
        "id": 3,
        "name": "humade",
        "email": "Aminuawesome@mail.com",
        "aboutme":"sgdsgsdgsdgsdgsdgsdgsdgsdgsdgdfshfdhsdfhs",
        "urlbox":"https://via.placeholder.com/600/24f355"         
    },
    {
        "id": 4,
        "name": "nethmi",
        "email": "rismad@mail.com",
        "aboutme":"sgdsgsdgsdgsdgsdgsdgsdgsdgsdgdfshfdhsdfhs",
        "urlbox":"https://via.placeholder.com/600/24f355"   

    }
]